…
## What is mean total number of steps taken per day?
### Calculate the steps taken by day
We will first calculate the steps taken per day and will use group_by function to do that. We also need to omit NA values.


```r
daily_steps <- act_data %>%
  na.omit() %>%
  group_by(date) %>%
  summarize(daily_steps = sum(steps))
  print(daily_steps)
```

```
## # A tibble: 53 × 2
##    date       daily_steps
##    <date>           <dbl>
##  1 2012-10-02         126
##  2 2012-10-03       11352
##  3 2012-10-04       12116
##  4 2012-10-05       13294
##  5 2012-10-06       15420
##  6 2012-10-07       11015
##  7 2012-10-09       12811
##  8 2012-10-10        9900
##  9 2012-10-11       10304
## 10 2012-10-12       17382
## # … with 43 more rows
```
…
### Re-drawing the histogram with the filled values

```r
daily_steps_filled <- act_data_filled %>%
      na.omit() %>%
      group_by(date) %>%
      summarize(daily_steps = sum(steps))
print(daily_steps_filled)
```

```
## # A tibble: 61 × 2
##    date       daily_steps
##    <date>           <dbl>
##  1 2012-10-01      10766.
##  2 2012-10-02        126 
##  3 2012-10-03      11352 
##  4 2012-10-04      12116 
##  5 2012-10-05      13294 
##  6 2012-10-06      15420 
##  7 2012-10-07      11015 
##  8 2012-10-08      10766.
##  9 2012-10-09      12811 
## 10 2012-10-10       9900 
## # … with 51 more rows
```
…
